,PassengerId,Survived
0,892,0.8507166201399654
1,893,0.5862889154520843
2,894,0.8280780450928942
3,895,0.8856457729745688
4,896,0.4459286428860695
5,897,0.8491199483379518
6,898,0.3030624759922862
7,899,0.8087038312670438
8,900,0.2925570912204192
9,901,0.9168380167002166
10,902,0.8783848285298206
11,903,0.6791191570839579
12,904,0.0955060747191312
13,905,0.9080408263549079
14,906,0.17198034051750988
15,907,0.20021137627751162
16,908,0.71144594426175
17,909,0.8411092962262352
18,910,0.4643490793751264
19,911,0.4440140263702833
20,912,0.7040987144246589
21,913,0.8453577336716405
22,914,0.08432176387922108
23,915,0.453339087751339
24,916,0.07859145860410388
25,917,0.9461180337090846
26,918,0.0664973496641057
27,919,0.844339698200084
28,920,0.6475582794044514
29,921,0.9232407851385772
30,922,0.8779421443143102
31,923,0.8318493277884174
32,924,0.5203685051297564
33,925,0.46248932821176214
34,926,0.5657939696965673
35,927,0.8310890761949292
36,928,0.4125178870263614
37,929,0.35994818127227535
38,930,0.8802324319344419
39,931,0.8984943771152687
40,932,0.8951887002038603
41,933,0.6059883135717383
42,934,0.9161980350785587
43,935,0.22835576076053665
44,936,0.17037361959543584
45,937,0.8809513417827887
46,938,0.6150956154785601
47,939,0.8134317596879668
48,940,0.13655223207617784
49,941,0.47293538718477746
50,942,0.5864259063397381
51,943,0.7183490993075987
52,944,0.29491094733586354
53,945,0.09874560256559928
54,946,0.6767612538956824
55,947,0.9057259675079175
56,948,0.9042473476284956
57,949,0.8810764823525902
58,950,0.8888121806063741
59,951,0.037797630897608014
60,952,0.858951255573401
61,953,0.786729103904157
62,954,0.8619538079694629
63,955,0.26344042531156675
64,956,0.3494223894475311
65,957,0.18301025602038334
66,958,0.2448395120176119
67,959,0.6688323448142521
68,960,0.5331005883357549
69,961,0.1341397019484618
70,962,0.27298627422793686
71,963,0.8703550581030948
72,964,0.4067547686185462
73,965,0.5157498440536215
74,966,0.04562915576010329
75,967,0.34586523827538374
76,968,0.8834280577002644
77,969,0.2810272438656781
78,970,0.7788097732505541
79,971,0.27298627422793686
80,972,0.8342285156513644
81,973,0.6670791196391137
82,974,0.6948405740261501
83,975,0.8559723603245271
84,976,0.6767612061050521
85,977,0.8746589867369319
86,978,0.28762162825559656
87,979,0.3438798633280352
88,980,0.31334360803870365
89,981,0.7073783278085968
90,982,0.42784419392241857
91,983,0.9180750404989013
92,984,0.13167056723382642
93,985,0.8675029567611822
94,986,0.4993422087614202
95,987,0.8810101492757774
96,988,0.28058860424922716
97,989,0.8908025606473289
98,990,0.3551553737756785
99,991,0.8998823176959335
100,992,0.13184166872230618
101,993,0.8041581781746772
102,994,0.8507602773228637
103,995,0.8835509389556025
104,996,0.35720479663270954
105,997,0.8819693842052656
106,998,0.8058724518055576
107,999,0.7861459238419025
108,1000,0.8555347348086286
109,1001,0.7243730943975826
110,1002,0.7820181080976172
111,1003,0.3679729817363163
112,1004,0.0966044723867504
113,1005,0.24531810593261383
114,1006,0.1325205731015625
115,1007,0.8635744240208337
116,1008,0.8630125582978413
117,1009,0.3212270796773643
118,1010,0.5129280577989432
119,1011,0.26597781609401794
120,1012,0.15865303667451391
121,1013,0.885770583810792
122,1014,0.11009384765586083
123,1015,0.8886991207083719
124,1016,0.8683924276427478
125,1017,0.3455060452948774
126,1018,0.8731286817715158
127,1019,0.4957227590919615
128,1020,0.8250911739550343
129,1021,0.8783133042538253
130,1022,0.8976648807067271
131,1023,0.6612752072395081
132,1024,0.5323012896502326
133,1025,0.8810037561356502
134,1026,0.9198510383161437
135,1027,0.8784041181090735
136,1028,0.8567277990860113
137,1029,0.761559523803116
138,1030,0.37187470801706723
139,1031,0.9468636467544885
140,1032,0.631775600308836
141,1033,0.06988199910631487
142,1034,0.5821440511964839
143,1035,0.7601612226407926
144,1036,0.6569753338107291
145,1037,0.9504462684516138
146,1038,0.5794703225881748
147,1039,0.8730063941272527
148,1040,0.5884009247664499
149,1041,0.8252208564614835
150,1042,0.06242413399301394
151,1043,0.8272266382014909
152,1044,0.9440757975848506
153,1045,0.47695875698218426
154,1046,0.9465140113093499
155,1047,0.8785450930545069
156,1048,0.04784044835453516
157,1049,0.37207326693602605
158,1050,0.6569753338107291
159,1051,0.4151106496123106
160,1052,0.34015753749258393
161,1053,0.8375717955726789
162,1054,0.21127044755402902
163,1055,0.8863746454333692
164,1056,0.8215457372436414
165,1057,0.4596107938207994
166,1058,0.6110267625229631
167,1059,0.9180143342302971
168,1060,0.06555396879590936
169,1061,0.3652805101248663
170,1062,0.8759202345910978
171,1063,0.8596936308426539
172,1064,0.9011514196930721
173,1065,0.9004925956748671
174,1066,0.9469049563580205
175,1067,0.17320873447503715
176,1068,0.17300837248373124
177,1069,0.7025983347924682
178,1070,0.2719626441996348
179,1071,0.1619889729262347
180,1072,0.7788097732505541
181,1073,0.596655434619751
182,1074,0.09591656761795109
183,1075,0.8171025124191365
184,1076,0.04556220222191032
185,1077,0.8159969968651348
186,1078,0.19699340588896286
187,1079,0.914708838239158
188,1080,0.8643631894856413
189,1081,0.8179442911562343
190,1082,0.8296438292183194
191,1083,0.516808918944857
192,1084,0.8788422626816979
193,1085,0.8229021919343507
194,1086,0.6837171930607958
195,1087,0.8999588682078428
196,1088,0.3092363042627507
197,1089,0.3441492587549665
198,1090,0.7500688874820505
199,1091,0.38904396401821706
200,1092,0.2663606507290672
201,1093,0.8171346386176622
202,1094,0.4855233773522176
203,1095,0.1883973246894417
204,1096,0.7590955495572984
205,1097,0.5781903990099244
206,1098,0.3292868478014669
207,1099,0.7546102260199429
208,1100,0.091831590101207
209,1101,0.8809646348384672
210,1102,0.8917467124625098
211,1103,0.8863527836534274
212,1104,0.6635726517496656
213,1105,0.4354769655031133
214,1106,0.7519144593762276
215,1107,0.6412067631159715
216,1108,0.2926414398798167
217,1109,0.6824034609996917
218,1110,0.08906687183655315
219,1111,0.9161313517914371
220,1112,0.23531220657177288
221,1113,0.8702795087781834
222,1114,0.1975375076033452
223,1115,0.8704040324586247
224,1116,0.14151005545857243
225,1117,0.4562579340268179
226,1118,0.8758042212023955
227,1119,0.31334360803870365
228,1120,0.9118093756317954
229,1121,0.802973961751857
230,1122,0.6554387562632578
231,1123,0.08799481643403961
232,1124,0.8996622979760789
233,1125,0.8764657990790207
234,1126,0.6047573031044222
235,1127,0.8676006221520989
236,1128,0.7344760442112841
237,1129,0.8378247307017328
238,1130,0.23861506589809522
239,1131,0.12086966538428723
240,1132,0.1473861917092869
241,1133,0.3115735951505898
242,1134,0.5899276160089626
243,1135,0.8954700866738612
244,1136,0.9272639709755096
245,1137,0.6897366614537762
246,1138,0.1904117743941638
247,1139,0.860133226601928
248,1140,0.26597781609401794
249,1141,0.3753827581469452
250,1142,0.16846761025097812
251,1143,0.8675653140283954
252,1144,0.46220382737633803
253,1145,0.8777205175449304
254,1146,0.8970852112120001
255,1147,0.8909608076168462
256,1148,0.8242753412028817
257,1149,0.8883551542872669
258,1150,0.18456343846116474
259,1151,0.8704142171461795
260,1152,0.9249614317915208
261,1153,0.8703754333479765
262,1154,0.24005709839530176
263,1155,0.3255170610881126
264,1156,0.7348507650233557
265,1157,0.9103940608898478
266,1158,0.6664062358794864
267,1159,0.8885702420662684
268,1160,0.3833306347127301
269,1161,0.8585475465367285
270,1162,0.5733326747726524
271,1163,0.8097044924662625
272,1164,0.06585292741847726
273,1165,0.4040460316607689
274,1166,0.8276424213997449
275,1167,0.2253964795299458
276,1168,0.7722128532858252
277,1169,0.8493289746811605
278,1170,0.8186629270680923
279,1171,0.7454718521882944
280,1172,0.3712538570613635
281,1173,0.8476836345247946
282,1174,0.23604001798684338
283,1175,0.31273922040804736
284,1176,0.3232201808422984
285,1177,0.9065747454455003
286,1178,0.8592905566315163
287,1179,0.5628041969777896
288,1180,0.8241350339720387
289,1181,0.9083300172559416
290,1182,0.6040999921131067
291,1183,0.3036855822894623
292,1184,0.8982871475374411
293,1185,0.7364660398816165
294,1186,0.9057442035773107
295,1187,0.883496974427476
296,1188,0.13323034719895188
297,1189,0.9249503666882841
298,1190,0.5683438964268868
299,1191,0.8908324530981266
300,1192,0.8977744911604832
301,1193,0.7735941767426149
302,1194,0.8330491223548487
303,1195,0.8780288437465766
304,1196,0.27298627422793686
305,1197,0.28080366991413197
306,1198,0.5575124585004934
307,1199,0.8103763898911297
308,1200,0.7361187378559279
309,1201,0.5668573046961356
310,1202,0.8614817988810458
311,1203,0.844339698200084
312,1204,0.8705121120706714
313,1205,0.3401412663401092
314,1206,0.09764275491142738
315,1207,0.2404767030514714
316,1208,0.6312194117292473
317,1209,0.7313503720783958
318,1210,0.886000654717418
319,1211,0.8249199913810119
320,1212,0.8835509389556025
321,1213,0.8537076659103175
322,1214,0.761559523803116
323,1215,0.6059883135717383
324,1216,0.06286744392097732
325,1217,0.8761559389778037
326,1218,0.24303779484585875
327,1219,0.5691241664763471
328,1220,0.8117216815260082
329,1221,0.7387303110454166
330,1222,0.32104946860190997
331,1223,0.5799431737842391
332,1224,0.8626079136458329
333,1225,0.36684889919404395
334,1226,0.885982413806577
335,1227,0.5889790275826505
336,1228,0.7870930549456233
337,1229,0.9036322246332908
338,1230,0.7420339405974226
339,1231,0.8790373853516636
340,1232,0.7265345682024086
341,1233,0.8978524703853806
342,1234,0.9392198777760625
343,1235,0.023677206989824673
344,1236,0.9391806116042769
345,1237,0.3333521046644722
346,1238,0.761559523803116
347,1239,0.4023888027164162
348,1240,0.7521907396975205
349,1241,0.22653642845588173
350,1242,0.1103499515695553
351,1243,0.7590955495572984
352,1244,0.6689920758139632
353,1245,0.8712941240448113
354,1246,0.32677329722185045
355,1247,0.6999840391113381
356,1248,0.2781245848909867
357,1249,0.8977329710100102
358,1250,0.8242753412028817
359,1251,0.4743164667981561
360,1252,0.9794729898332639
361,1253,0.20444275141658474
362,1254,0.22653642845588173
363,1255,0.8856457729745688
364,1256,0.08919528317596537
365,1257,0.6005283106833768
366,1258,0.8967979750244988
367,1259,0.33494714064987885
368,1260,0.11204816913650018
369,1261,0.7291146827761592
370,1262,0.790706629093892
371,1263,0.05712208185933865
372,1264,0.718232937492038
373,1265,0.8320151149421391
374,1266,0.19398712534466211
375,1267,0.04663642802378565
376,1268,0.5038455301964382
377,1269,0.7399851171226708
378,1270,0.703684955530894
379,1271,0.9357385287433531
380,1272,0.827777915964099
381,1273,0.8241940893957723
382,1274,0.48382904627022516
383,1275,0.40773814265054553
384,1276,0.7660544812804656
385,1277,0.23626674370726297
386,1278,0.8784408352137753
387,1279,0.8717851564857425
388,1280,0.8059205282594046
389,1281,0.9166516790117152
390,1282,0.47405198402461457
391,1283,0.16848284263315216
392,1284,0.8567455020349564
393,1285,0.84342691411604
394,1286,0.9504602996708549
395,1287,0.09335042497593915
396,1288,0.817426659287137
397,1289,0.1419095528141161
398,1290,0.8731386835429998
399,1291,0.8412459168681832
400,1292,0.06183640600021412
401,1293,0.845835549371869
402,1294,0.06719574268476614
403,1295,0.48782561556860493
404,1296,0.6708265339611067
405,1297,0.6836838186748957
406,1298,0.7993567002631528
407,1299,0.5377481735777235
408,1300,0.3239540584633622
409,1301,0.3347690302690228
410,1302,0.35116615044560207
411,1303,0.08154483390202061
412,1304,0.4010432731946669
413,1305,0.8588701383679668
414,1306,0.07602469831831082
415,1307,0.910622489826532
416,1308,0.9041893745364262
417,1309,0.9196871672438377
